<?xml version="1.0" encoding="UTF-8" standalone="no"?>
<svg
   id="InkscapeMarkers"
   version="1.1"
   sodipodi:docname="markers.svg"
   inkscape:version="1.2-dev (0adcaab, 2021-12-10)"
   width="300"
   height="400"
   xmlns:inkscape="http://www.inkscape.org/namespaces/inkscape"
   xmlns:sodipodi="http://sodipodi.sourceforge.net/DTD/sodipodi-0.dtd"
   xmlns="http://www.w3.org/2000/svg"
   xmlns:svg="http://www.w3.org/2000/svg">
  <sodipodi:namedview
     id="namedview755"
     pagecolor="#ffffff"
     bordercolor="#666666"
     borderopacity="1.0"
     inkscape:pageshadow="2"
     inkscape:pageopacity="0.0"
     inkscape:pagecheckerboard="0"
     showgrid="false"
     inkscape:zoom="4"
     inkscape:cx="158.875"
     inkscape:cy="100.375"
     inkscape:window-width="1858"
     inkscape:window-height="1177"
     inkscape:window-x="54"
     inkscape:window-y="-8"
     inkscape:window-maximized="1"
     inkscape:current-layer="showcase"
     inkscape:snap-center="true"
     inkscape:snap-intersection-paths="true"
     inkscape:object-paths="true"
     inkscape:snap-midpoints="true"
     inkscape:snap-smooth-nodes="true"
     width="301px"
     inkscape:showpageshadow="false"
     height="600px"
     inkscape:blackoutopacity="0.0"
     showguides="true">
    <inkscape:grid
       type="xygrid"
       id="grid6337" />
  </sodipodi:namedview>
  <defs
     id="defs3">
    <inkscape:path-effect
       effect="fillet_chamfer"
       id="path-effect74033"
       is_visible="true"
       lpeversion="1"
       satellites_param="F,0,0,1,0,0,0,1 @ F,0,0,1,0,1.4142136,0,1 @ F,0,0,1,0,0,0,1 @ F,0,0,1,0,1.4142136,0,1 @ F,0,0,1,0,0,0,1 @ F,0,0,1,0,0,0,1"
       unit="px"
       method="auto"
       mode="F"
       radius="0"
       chamfer_steps="1"
       flexible="false"
       use_knot_distance="true"
       apply_no_radius="true"
       apply_with_radius="true"
       only_selected="false"
       hide_knots="false" />
    <inkscape:path-effect
       effect="fillet_chamfer"
       id="path-effect66336"
       is_visible="true"
       lpeversion="1"
       satellites_param="F,0,0,1,0,0,0,1 @ F,0,0,1,0,0,0,1 @ F,0,0,1,0,2.236068,0,1 @ F,0,0,1,0,0,0,1 @ F,0,0,1,0,0,0,1 @ F,0,0,1,0,0,0,1"
       unit="px"
       method="auto"
       mode="F"
       radius="0"
       chamfer_steps="1"
       flexible="false"
       use_knot_distance="true"
       apply_no_radius="true"
       apply_with_radius="true"
       only_selected="false"
       hide_knots="false" />
    <marker
       style="overflow:visible"
       id="arrow1"
       refX="0"
       refY="0"
       orient="auto-start-reverse"
       inkscape:stockid="arrow1"
       markerWidth="1"
       markerHeight="1"
       viewBox="0 0 1 1">
      <path
         style="fill:none;stroke:context-stroke;stroke-width:1;stroke-linecap:butt"
         d="M 3,-3 0,0 3,3"
         id="path5057"
         transform="rotate(180,0.125,0)"
         sodipodi:nodetypes="ccc" />
    </marker>
    <marker
       style="overflow:visible"
       id="Arow3"
       refX="0"
       refY="0"
       orient="auto-start-reverse"
       inkscape:stockid="Arrow3"
       markerWidth="1"
       markerHeight="1"
       viewBox="0 0 1 1">
      <path
         style="fill:none;stroke:context-stroke;stroke-width:1;stroke-linecap:round"
         d="M 3,-3 0,0 3,3"
         id="arrow3"
         transform="rotate(180,0.125,0)"
         sodipodi:nodetypes="ccc" />
    </marker>
    <marker
       style="overflow:visible"
       id="Arrow4"
       refX="0"
       refY="0"
       orient="auto-start-reverse"
       inkscape:stockid="Arrow4"
       markerWidth="1"
       markerHeight="1"
       viewBox="0 0 1 1">
      <path
         style="fill:context-stroke;fill-rule:evenodd;stroke:none"
         d="m 1,0 -3,3 h -2 l 3,-3 -3,-3 h 2 z"
         id="path1741" />
    </marker>
    <marker
       style="overflow:visible"
       id="TriangleStart"
       refX="0"
       refY="0"
       orient="auto-start-reverse"
       inkscape:stockid="TriangleStart"
       markerWidth="1"
       markerHeight="1"
       viewBox="0 0 1 1">
      <path
         transform="scale(0.5)"
         style="fill:context-stroke;fill-rule:evenodd;stroke:context-stroke;stroke-width:1pt"
         d="M 5.77,0 -2.88,5 V -5 Z"
         id="path135" />
    </marker>
    <marker
       style="overflow:visible"
       id="Arrow 5"
       refX="0"
       refY="0"
       orient="auto-start-reverse"
       inkscape:stockid="Arrow 5"
       markerWidth="1"
       markerHeight="1"
       viewBox="0 0 1 1">
      <path
         transform="scale(0.5)"
         style="fill:context-stroke;fill-rule:evenodd;stroke:context-stroke;stroke-width:1pt"
         d="m 6,0 c -3,1 -7,3 -9,5 0,0 0,-4 2,-5 -2,-1 -2,-5 -2,-5 2,2 6,4 9,5 z"
         id="path8893" />
    </marker>
    <marker
       style="overflow:visible"
       id="EmptyTriangleIn"
       refX="0"
       refY="0"
       orient="auto-start-reverse"
       inkscape:stockid="EmptyTriangleIn"
       markerWidth="1"
       markerHeight="1"
       viewBox="0 0 1 1">
      <path
         transform="scale(0.5)"
         style="fill:context-fill;fill-rule:evenodd;stroke:context-stroke;stroke-width:2"
         d="M 5.77,0 -2.88,5 V -5 Z"
         id="path153" />
    </marker>
    <marker
       style="overflow:visible"
       id="Arrow1"
       refX="0"
       refY="0"
       orient="auto-start-reverse"
       inkscape:stockid="Arrow1"
       markerWidth="1"
       markerHeight="1"
       viewBox="0 0 1 1">
      <path
         style="fill:context-stroke;fill-rule:evenodd;stroke:none"
         d="M 0,0 5,-5 -12.5,0 5,5 Z"
         id="arrow1L"
         transform="scale(-0.5)" />
    </marker>
    <marker
       style="overflow:visible"
       id="Arrow2"
       refX="0"
       refY="0"
       orient="auto-start-reverse"
       inkscape:stockid="Arrow2"
       markerWidth="1"
       markerHeight="1"
       viewBox="0 0 1 1">
      <path
         transform="scale(0.7)"
         d="M -2,-4 9,0 -2,4 c 2,-2.33 2,-5.66 0,-8 z"
         style="fill:context-stroke;fill-rule:evenodd;stroke:none"
         id="arrow2L" />
    </marker>
    <marker
       style="overflow:visible"
       id="Rounded Arrow"
       refX="0"
       refY="0"
       orient="auto-start-reverse"
       inkscape:stockid="Rounded Arrow"
       markerWidth="1"
       markerHeight="1"
       viewBox="0 0 1 1">
      <path
         transform="scale(0.7)"
         d="m -0.21114562,-4.1055728 6.42229122,3.21114561 a 1,1 90 0 1 0,1.78885438 L -0.21114562,4.1055728 A 1.236068,1.236068 31.717474 0 1 -2,3 v -6 a 1.236068,1.236068 148.28253 0 1 1.78885438,-1.1055728 z"
         style="fill:context-stroke;fill-rule:evenodd;stroke:none"
         id="path1367" />
    </marker>
    <marker
       style="overflow:visible"
       id="Sketch"
       refX="0"
       refY="0"
       orient="auto-start-reverse"
       inkscape:stockid="Sketch"
       markerWidth="1"
       markerHeight="1"
       viewBox="0 0 1 1">
      <path
         style="fill:none;stroke:context-stroke;stroke-width:0.4;stroke-linecap:round"
         d="m -4.5421538,-3.2452189 3.83900644,2.60235235 0.56348102,0.59255887 L -2.4921466,1.1808717 -4.4106004,2.139946 -4.5795251,2.8245356 -4.703996,3.0734773 -4.3128019,2.6822832 -3.9749524,2.3088707 0.66603196,-0.12720162 0.02589622,-0.32279868 -1.7613224,-0.60366199 -3.580874,-2.0472634 -4.3186004,-2.392437 l -1.2937699,-0.2549423 2.1825172,0.042166 0.6996091,1.0554873 1.4406512,0.1145833 1.20879971,0.91674665 1.53333299,0.47138389 -1.85995289,1.23785256 -2.03832621,0.9224332 -1.5469949,0.9779853"
         id="path22096"
         sodipodi:nodetypes="ccc" />
    </marker>
    <marker
       style="overflow:visible"
       id="Tail"
       refX="0"
       refY="0"
       orient="auto-start-reverse"
       inkscape:stockid="Tail"
       markerWidth="1"
       markerHeight="1"
       viewBox="0 0 1 1">
      <path
         id="tail"
         style="fill:none;fill-rule:evenodd;stroke:context-stroke;stroke-width:1;stroke-linecap:round"
         d="m -3.0000001,-3 -3.1102256,3 3.1102256,3 M -4.0952644e-8,-3 -3.0000001,0 -4.0952644e-8,3 M 3,3 -4.0952644e-8,0 3,-3"
         sodipodi:nodetypes="ccccccccc" />
    </marker>
    <marker
       inkscape:stockid="DistanceStart"
       orient="auto"
       refY="0"
       refX="0"
       id="DistanceStart"
       style="overflow:visible"
       markerWidth="1"
       markerHeight="1"
       viewBox="0 0 1 1">
      <g
         id="distance1"
         transform="scale(0.6)">
        <path
           d="m 0,-40 v 0"
           id="path6103" />
        <path
           id="path2302"
           d="M 0,0 8,5 V -5 Z"
           style="fill:context-stroke;fill-rule:evenodd;stroke:none"
           sodipodi:nodetypes="ccccc" />
        <path
           id="path2304"
           d="M 0,-8 V 40"
           style="fill:none;stroke:context-stroke;stroke-width:1;stroke-linecap:square" />
      </g>
    </marker>
    <marker
       inkscape:stockid="DistanceEnd"
       orient="auto"
       refY="0"
       refX="0"
       id="DistanceEnd"
       style="overflow:visible"
       markerWidth="1"
       markerHeight="1"
       viewBox="0 0 1 1">
      <g
         id="distance2"
         transform="scale(0.6)">
        <path
           d="m 0,-40 v 0"
           id="path6184" />
        <path
           id="path2312"
           d="M 0,0 -8,5 V -5 Z"
           style="fill:context-stroke;fill-rule:evenodd;stroke:none" />
        <path
           id="path2314"
           d="M 0,-8 V 40"
           style="fill:none;stroke:context-stroke;stroke-width:1;stroke-linecap:square" />
      </g>
    </marker>
    <marker
       style="overflow:visible"
       id="Dot"
       refX="0"
       refY="0"
       orient="auto"
       inkscape:stockid="Dot"
       markerWidth="1"
       markerHeight="1"
       viewBox="0 0 1 1">
      <path
         transform="scale(0.5)"
         style="fill:context-stroke;fill-rule:evenodd;stroke:context-stroke;stroke-width:1pt"
         d="M 5,0 C 5,2.76 2.76,5 0,5 -2.76,5 -5,2.76 -5,0 c 0,-2.76 2.3,-5 5,-5 2.76,0 5,2.24 5,5 z"
         id="Dot1"
         sodipodi:nodetypes="sssss" />
    </marker>
    <marker
       style="overflow:visible"
       id="Square"
       refX="0"
       refY="0"
       orient="auto"
       inkscape:stockid="Square"
       markerWidth="1"
       markerHeight="1"
       viewBox="0 0 1 1">
      <path
         transform="scale(0.5)"
         style="fill:context-stroke;fill-rule:evenodd;stroke:context-stroke;stroke-width:1pt"
         d="M -5,-5 V 5 H 5 V -5 Z"
         id="Squere" />
    </marker>
    <marker
       style="overflow:visible"
       id="Diamond"
       refX="0"
       refY="0"
       orient="auto"
       inkscape:stockid="Diamond"
       markerWidth="1"
       markerHeight="1"
       viewBox="0 0 1 1">
      <path
         transform="scale(0.45)"
         style="fill:context-stroke;fill-rule:evenodd;stroke:context-stroke;stroke-width:1pt"
         d="M 0,-7.0710768 -7.0710894,0 0,7.0710589 7.0710462,0 Z"
         id="Diamond1" />
    </marker>
    <marker
       style="overflow:visible"
       id="marker9466"
       refX="0"
       refY="0"
       orient="auto"
       inkscape:stockid="Dot"
       markerWidth="1"
       markerHeight="1"
       viewBox="0 0 1 1">
      <path
         transform="scale(0.45)"
         style="fill:context-fill;fill-rule:evenodd;stroke:context-stroke;stroke-width:2"
         d="M 5,0 C 5,2.76 2.76,5 0,5 -2.76,5 -5,2.76 -5,0 c 0,-2.76 2.3,-5 5,-5 2.76,0 5,2.24 5,5 z"
         id="path9464"
         sodipodi:nodetypes="sssss" />
    </marker>
    <marker
       style="overflow:visible"
       id="marker9949"
       refX="0"
       refY="0"
       orient="auto"
       inkscape:stockid="Square"
       markerWidth="1"
       markerHeight="1"
       viewBox="0 0 1 1">
      <path
         transform="scale(0.5)"
         style="fill:context-fill;fill-rule:evenodd;stroke:context-stroke;stroke-width:2"
         d="M -5,-5 V 5 H 5 V -5 Z"
         id="path9947" />
    </marker>
    <marker
       style="overflow:visible"
       refX="0"
       refY="0"
       orient="auto"
       inkscape:stockid="EmptyDiamond"
       id="EmptyDiamond"
       markerWidth="1"
       markerHeight="1"
       viewBox="0 0 1 1">
      <path
         transform="scale(0.45)"
         style="fill:context-fill;fill-rule:evenodd;stroke:context-stroke;stroke-width:2"
         d="M 0,-7.0710768 -7.0710894,0 0,7.0710589 7.0710462,0 Z"
         id="path108" />
    </marker>
    <marker
       style="overflow:visible"
       id="Stop"
       refX="0"
       refY="0"
       orient="auto"
       inkscape:stockid="Stop"
       markerWidth="1"
       markerHeight="1"
       viewBox="0 0 1 1">
      <path
         style="fill:none;stroke:context-stroke;stroke-width:1"
         d="M 0,4 V -4"
         id="path171" />
    </marker>
    <marker
       style="overflow:visible"
       id="X"
       refX="0"
       refY="0"
       orient="auto"
       inkscape:stockid="X"
       markerWidth="1"
       markerHeight="1"
       viewBox="0 0 1 1">
      <path
         style="fill:none;stroke:context-stroke;stroke-width:1"
         d="M -3,3 3,-3 M 3,3 -3,-3"
         id="path12054" />
    </marker>
    <marker
       style="overflow:visible"
       id="SemiCircleIn"
       refX="0"
       refY="0"
       orient="auto"
       inkscape:stockid="SemiCircleIn"
       markerWidth="1"
       markerHeight="1"
       viewBox="0 0 1 1">
      <path
         style="fill:context-stroke;fill-rule:evenodd;stroke:context-stroke;stroke-width:0.6pt"
         d="m -0.22470421,-0.02741555 c 0,1.65599995 1.34400001,2.99999995 3.00000001,2.99999995 v -6 c -1.656,0 -3.00000001,1.344 -3.00000001,3.00000005 z"
         id="path180" />
    </marker>
    <marker
       style="overflow:visible"
       id="CurveIn"
       refX="2"
       refY="0"
       orient="auto-start-reverse"
       inkscape:stockid="CurveIn"
       markerWidth="1"
       markerHeight="1"
       viewBox="0 0 1 1">
      <path
         style="fill:none;fill-rule:evenodd;stroke:context-stroke;stroke-width:1.08"
         d="m -0.7647042,-3.0274156 c 1.656,0 3,1.344 3,3.00000005 0,1.65599995 -1.344,2.99999995 -3,2.99999995"
         id="path186" />
    </marker>
    <marker
       style="overflow:visible"
       id="CurvyCross"
       refX="0"
       refY="0"
       orient="auto"
       inkscape:stockid="CurvyCross"
       markerWidth="6.0230904"
       markerHeight="7.0799999"
       viewBox="0 0 6.02309058 7.07999997"
       preserveAspectRatio="xMidYMid">
      <g
         transform="scale(0.6)"
         id="g196">
        <path
           style="fill:none;fill-rule:evenodd;stroke:context-stroke;stroke-width:1.8"
           d="m 4.625493,-5.0456926 c -2.76,0 -5.00000002,2.24 -5.00000002,5.00000002 0,2.75999998 2.24000002,4.99999998 5.00000002,4.99999998"
           id="path192" />
        <path
           style="fill:none;fill-rule:evenodd;stroke:context-stroke;stroke-width:1.8"
           d="m -5.4129913,-5.0456926 c 2.76,0 4.99999999,2.24 4.99999999,5.00000002 0,2.75999998 -2.23999999,4.99999998 -4.99999999,4.99999998"
           id="path194" />
      </g>
    </marker>
    <marker
       style="overflow:visible"
       id="Scissors"
       refX="0"
       refY="0"
       orient="auto"
       inkscape:stockid="Scissors"
       markerWidth="1"
       markerHeight="1"
       viewBox="0 0 1 1">
      <path
         style="fill:context-stroke"
         d="M 9.0898857,-3.6061018 C 8.1198849,-4.7769976 6.3697607,-4.7358294 5.0623558,-4.2327734 l -8.2124046,3.0779029 c -2.3882933,-1.3067135 -4.7482873,-0.9325372 -4.7482873,-1.5687873 0,-0.4973164 0.4566662,-0.3883222 0.3883068,-1.6831941 -0.065635,-1.2432767 -1.3635771,-2.1630796 -2.5903987,-2.0816435 -1.227271,-0.00735 -2.499439,0.9331613 -2.510341,2.2300611 -0.09143,1.3063864 1.007209,2.5196896 2.306764,2.6052316 1.5223406,0.2266616 4.218258,-0.6955566 5.482945,1.57086006 -0.9422847,1.73825774 -2.6140244,1.74307674 -4.1255107,1.65607034 -1.2548743,-0.072235 -2.7620933,0.2873979 -3.3606483,1.5208605 -0.578367,1.1820862 -0.0112,2.8646022 1.316749,3.226412 1.3401912,0.4918277 3.1806689,-0.129711 3.4993722,-1.6707242 0.2456585,-1.187823 -0.5953659,-1.7459574 -0.2725074,-2.1771537 0.2436135,-0.32536 1.7907806,-0.1368452 4.5471053,-1.3748244 L 5.6763468,4.2330688 C 6.8000164,4.5467672 8.1730685,4.5362646 9.1684433,3.4313614 l -9.22008423,-3.48508362 z m -18.3078016,-1.900504 c 1.294559,0.7227998 1.1888392,2.6835702 -0.1564272,3.0632889 -1.2165179,0.423661 -2.7710269,-0.7589694 -2.3831779,-2.0774648 0.227148,-1.0818519 1.653387,-1.480632 2.5396051,-0.9858241 z m 0.056264,8.0173649 c 1.3508301,0.4988648 1.1214429,2.7844356 -0.2522207,3.091609 -0.9110594,0.3163391 -2.2135494,-0.1387976 -2.3056964,-1.2121394 -0.177609,-1.305055 1.356085,-2.4841482 2.5579171,-1.8794696 z"
         id="sizzorsPath"
         transform="scale(0.7)" />
    </marker>
    <marker
       style="overflow:visible"
       id="Club"
       refX="0"
       refY="0"
       orient="auto-start-reverse"
       inkscape:stockid="Club"
       markerWidth="1"
       markerHeight="1"
       viewBox="0 0 1 1">
      <path
         transform="scale(-0.5)"
         style="fill:context-stroke;fill-rule:evenodd;stroke:context-stroke"
         d="m -1.5971367,-7.0977635 c -1.8892507,0 -3.426382,1.5371314 -3.426382,3.4263822 0,0.6566798 0.2383531,1.2269257 0.5594092,1.7481542 -0.038751,0.032111 -0.079672,0.058463 -0.1165436,0.093235 -0.6224234,-0.8549928 -1.5893983,-1.4451409 -2.7271199,-1.4451409 -1.8892515,-1e-7 -3.426382,1.5371314 -3.426382,3.42638214 0,1.88925076 1.5371305,3.42638216 3.426382,3.42638216 0.9934462,0 1.868619,-0.4420611 2.4940326,-1.1188187 -0.124687,0.3548915 -0.2097783,0.7214874 -0.2097783,1.1188187 0,1.8892506 1.5371313,3.4263822 3.426382,3.4263822 1.88925064,0 3.4263821,-1.5371316 3.4263821,-3.4263822 0,-0.7933959 -0.3155586,-1.4938285 -0.7691878,-2.0744763 C 2.4152718,1.7663868 3.7718375,2.2973711 4.7661444,3.8340272 4.0279463,3.0958289 3.5540908,1.7534117 3.5540908,-0.05852936 l -0.6293354,-0.04661745 0.5827179,-0.0233087 c 0,-1.81194109 0.4505466,-3.15435829 1.188745,-3.89255659 -0.9590906,1.4822308 -2.2571634,2.0263625 -3.5662345,2.3075635 0.4041964,-0.5619092 0.6992616,-1.213407 0.6992616,-1.9579327 0,-1.8892506 -1.53713146,-3.4263822 -3.4263821,-3.4263822 z"
         id="path1406" />
    </marker>
    <marker
       style="overflow:visible"
       orient="auto"
       refY="0"
       refX="0"
       id="RazorWire"
       inkscape:stockid="RazorWire"
       markerWidth="1"
       markerHeight="1"
       viewBox="0 0 1 1">
      <path
         d="M -1,-1 V 1 L -5,3 H 5 L 1,1 V -1 L 5.05,-3 H -4.975 Z"
         style="fill:#808080;fill-opacity:1;fill-rule:evenodd;stroke:none;stroke-width:0.8"
         id="path234"
         sodipodi:nodetypes="ccccccccc" />
    </marker>
    <marker
       orient="auto-start-reverse"
       refY="0"
       refX="0"
       id="3dots"
       inkscape:stockid="3dots"
       style="overflow:visible"
       markerWidth="1"
       markerHeight="1"
       viewBox="0 0 1 1">
      <g
         id="g1246"
         transform="scale(0.5)">
        <circle
           cx="4"
           cy="0"
           r="1"
           id="circle237"
           style="fill:context-stroke;stroke:context-stroke" />
        <circle
           cx="8"
           cy="0"
           r="1"
           id="circle239"
           style="fill:context-stroke;stroke:context-stroke" />
        <circle
           cx="12"
           cy="0"
           r="1"
           id="circle241"
           style="fill:context-stroke;stroke:context-stroke" />
      </g>
    </marker>
    <marker
       style="overflow:visible"
       id="Torso"
       refX="0"
       refY="0"
       orient="auto-start-reverse"
       inkscape:stockid="Torso"
       markerWidth="1"
       markerHeight="1"
       viewBox="0 0 1 1">
      <g
         transform="scale(-0.7)"
         id="g228">
        <path
           style="fill:none;fill-opacity:0.75;fill-rule:evenodd;stroke:context-stroke;stroke-width:1.25"
           d="m -4.7792281,-3.239542 c 2.350374,0.3659393 5.30026732,1.9375477 5.03715532,3.62748546 C -0.00518779,2.0778819 -2.2126741,2.6176539 -4.5630471,2.2517169 -6.9134221,1.8857769 -8.521035,0.75201414 -8.257922,-0.93792336 -7.994809,-2.6278615 -7.1296041,-3.6054813 -4.7792281,-3.239542 Z"
           id="path214" />
        <path
           style="fill:none;fill-opacity:0.75;fill-rule:evenodd;stroke:context-stroke;stroke-width:1pt"
           d="M 4.4598789,0.08866574 C -2.5564571,-4.378332 5.2248769,-3.9061806 -0.84829578,-8.7197331"
           id="path216" />
        <path
           style="fill:none;fill-opacity:0.75;fill-rule:evenodd;stroke:context-stroke;stroke-width:1pt"
           d="M 4.9298719,0.05752074 C -1.3872731,1.7494689 1.8027579,5.4782079 -4.9448731,7.5462725"
           id="path218" />
        <rect
           style="fill:context-stroke;fill-rule:evenodd;stroke-width:1pt"
           width="2.6366582"
           height="2.7608147"
           x="-10.391706"
           y="-1.7408575"
           transform="matrix(0.527536,-0.849533,0.887668,0.460484,0,0)"
           id="rect220" />
        <rect
           style="fill:context-stroke;fill-rule:evenodd;stroke-width:1pt"
           width="2.7327356"
           height="2.8614161"
           x="4.9587269"
           y="-7.9629307"
           transform="matrix(0.671205,-0.741272,0.790802,0.612072,0,0)"
           id="rect222" />
        <path
           style="fill:#ff0000;fill-opacity:0.75;fill-rule:evenodd;stroke:context-stroke;stroke-width:1pt"
           d="m 16.779951,-28.685045 a 0.60731727,0.60731727 0 1 0 -1.214634,0 0.60731727,0.60731727 0 1 0 1.214634,0 z"
           transform="matrix(0,-1.109517,1.109517,0,25.96648,19.71619)"
           id="path224" />
        <path
           style="fill:#ff0000;fill-opacity:0.75;fill-rule:evenodd;stroke:context-stroke;stroke-width:1pt"
           d="m 16.779951,-28.685045 a 0.60731727,0.60731727 0 1 0 -1.214634,0 0.60731727,0.60731727 0 1 0 1.214634,0 z"
           transform="matrix(0,-1.109517,1.109517,0,26.8245,16.99126)"
           id="path226" />
      </g>
    </marker>
    <marker
       style="overflow:visible"
       id="Legs"
       refX="0"
       refY="0"
       orient="auto-start-reverse"
       inkscape:stockid="Legs"
       markerWidth="1"
       markerHeight="1"
       viewBox="0 0 1 1">
      <g
         transform="scale(-0.7)"
         id="g211">
        <g
           transform="matrix(0,-1,-1,0,20.70862,21.31391)"
           id="g205">
          <path
             style="fill:none;fill-opacity:0.75;fill-rule:evenodd;stroke:context-stroke;stroke-width:1pt"
             d="m 21.22125,20.67536 c -6.910151,4.721157 -2.454525,6.606844 -5.841071,13.443235"
             id="path201" />
          <path
             style="fill:none;fill-opacity:0.75;fill-rule:evenodd;stroke:context-stroke;stroke-width:1pt"
             d="m 21.39811,20.54812 c -1.360509,8.347524 3.536072,8.76994 4.505041,13.824958"
             id="path203" />
        </g>
        <path
           style="fill:context-stroke;fill-rule:evenodd;stroke-width:1pt"
           d="m -14.09007,-6.7318716 -0.922168,4.043383 3.962751,-1.22307 z"
           id="path207" />
        <path
           style="fill:context-stroke;fill-rule:evenodd;stroke-width:1pt"
           d="m -15.215679,4.5567534 1.874127,3.699613 2.266874,-3.472855 z"
           id="path209" />
      </g>
    </marker>
    <marker
       markerWidth="8"
       markerHeight="11"
       refX="0"
       refY="0"
       orient="auto"
       id="pin"
       viewBox="0 0 8 11"
       inkscape:stockid="pin"
       preserveAspectRatio="xMidYMid">
      <path
         id="path2422"
         style="fill:#ff0000;fill-rule:evenodd;stroke:none;stop-color:#1c1c1c"
         d="m 2,-9 c 0,1.1045695 -0.8954305,2 -2,2 -1.1045695,0 -2,-0.8954305 -2,-2 0,-1.104569 0.8954305,-2 2,-2 1.1045695,0 2,0.895431 2,2 z m 2,0 c 0,3 -3,6 -4,7 -1,-1 -4,-4 -4,-7 0,-2.209139 1.790861,-4 4,-4 2.209139,0 4,1.790861 4,4 z"
         sodipodi:nodetypes="sssssscsss" />
    </marker>
    <marker
       markerWidth="0.52499998"
       markerHeight="0.99999994"
       refX="0"
       refY="0"
       orient="auto-start-reverse"
       id="CapTriangle"
       viewBox="0 0 0.525 1"
       inkscape:stockid="pin"
       style="overflow:visible"
       preserveAspectRatio="xMidYMid">
      <path
         id="path7813"
         style="fill:context-stroke;stroke-linecap:butt"
         d="M 0,-1 1,0 0,1 -0.05,0 Z"
         sodipodi:nodetypes="sssssscsss"
         transform="scale(0.5)" />
    </marker>
    <marker
       markerWidth="1.05"
       markerHeight="0.99999994"
       refX="0"
       refY="0"
       orient="auto-start-reverse"
       id="CapRibborn1"
       viewBox="0 0 1.05 1"
       inkscape:stockid="pin"
       style="overflow:visible"
       preserveAspectRatio="xMidYMid">
      <path
         id="path56643"
         style="fill:context-stroke;stroke-linecap:butt"
         d="M 0,-1 H 2 L 1,0 2,1 H 0 L -0.1,0 Z"
         sodipodi:nodetypes="sssssscsss"
         transform="scale(0.5)" />
    </marker>
    <marker
       markerWidth="1.05"
       markerHeight="0.99999994"
       refX="0"
       refY="0"
       orient="auto-start-reverse"
       id="CapRibbon2"
       viewBox="0 0 1.05 1"
       inkscape:stockid="pin"
       style="overflow:visible"
       preserveAspectRatio="xMidYMid">
      <path
         id="path63170"
         style="fill:context-stroke;stroke-linecap:butt"
         d="M 0,-1 H 2 A 1.11,1.11 90 0 0 2,1 H 0 L -0.1,0 Z"
         sodipodi:nodetypes="sssssscsss"
         transform="scale(0.5)" />
    </marker>
    <marker
       markerWidth="0.63628411"
       markerHeight="0.99999994"
       refX="0"
       refY="0"
       orient="auto-start-reverse"
       id="CapButt"
       viewBox="0 0 0.63628413 1"
       inkscape:stockid="pin"
       style="overflow:visible"
       preserveAspectRatio="xMidYMid">
      <path
         id="path94417"
         style="fill:context-stroke;stroke-linecap:butt"
         d="M 0,-1 H 0.585 C 1.107,-1 1.369,-0.369 1,0 1.369,0.369 1.107,1 0.585,1 H 0 L -0.1,0 Z"
         sodipodi:nodetypes="sssssscsss"
         transform="scale(0.5)" />
    </marker>
    <marker
       markerWidth="1.0499998"
       markerHeight="1.9999996"
       refX="0"
       refY="0"
       orient="auto-start-reverse"
       id="Cap4"
       viewBox="0 0 1.05 2"
       inkscape:stockid="pin"
       style="overflow:visible"
       preserveAspectRatio="xMidYMid">
      <path
         id="path104971"
         style="fill:context-stroke;stroke-linecap:butt"
         d="M 0,-1 H 0.585 C 1.33,-1 1.7,-1.6 2,-2 V 2 C 1.7,1.6 1.33,1 0.585,1 H 0 L -0.1,0 Z"
         sodipodi:nodetypes="sssssscsss"
         transform="scale(0.5)" />
    </marker>
    <!--END-->
  </defs>
  <g
     inkscape:groupmode="layer"
     id="showcase">
    <path
       style="display:none;fill:none;stroke:context-stroke;stroke-width:1"
       d="m 2.7272727,-12.545455 c 0,1.506232 -1.2210416,2.7272732 -2.7272727,2.7272732 -1.5062311,0 -2.7272727,-1.2210412 -2.7272727,-2.7272732 0,-1.50623 1.2210416,-2.727272 2.7272727,-2.727272 1.5062311,0 2.7272727,1.221042 2.7272727,2.727272 z m 2.7272728,0 C 5.4545455,-8.4545455 1.3636364,-4.3636364 0,-3 -1.3636364,-4.3636364 -5.4545455,-8.4545455 -5.4545455,-12.545455 -5.4545455,-15.557917 -3.0124623,-18 0,-18 c 3.0124623,0 5.4545455,2.442083 5.4545455,5.454545 z"
       id="path12552"
       sodipodi:nodetypes="sssssscsss" />
    <path
       style="display:inline;fill:#000000;fill-rule:evenodd;stroke:none"
       d="M 0,-1 H 0.585 C 1.33,-1 1.7,-1.6 2,-2 V 2 C 1.7,1.6 1.33,1 0.585,1 H 0 L -0.02,0 Z"
       id="path2786"
       sodipodi:nodetypes="cccccccc" />
    <path
       style="display:none;fill:#000000;fill-rule:evenodd;stroke:none"
       d="M 8,0 C 4,0 1,2 -1,5 V -5 c 2,3 5,5 9,5 z"
       id="path1316"
       sodipodi:nodetypes="cccc" />
    <path
       d="M -2,-4 9,0 -2,4 c 2,-2.33 2,-5.66 0,-8 z"
       style="display:none;fill:#000000;fill-rule:evenodd;stroke:none"
       id="path1334"
       sodipodi:nodetypes="cccc" />
    <path
       style="display:none;fill:#000000;fill-rule:evenodd;stroke:context-stroke;stroke-width:1pt"
       d="M 6,0 C 2,0 -1,2 -3,5 V -5 c 2,3 5,5 9,5 z"
       id="path4162"
       sodipodi:nodetypes="cccc" />
    <path
       style="fill:#000000;stroke:#000000;stroke-width:0.999997;stroke-linecap:square;stroke-linejoin:round;stroke-miterlimit:4;stroke-dasharray:none;stroke-dashoffset:0;stroke-opacity:1;marker-start:url(#Square);marker-mid:url(#Square);marker-end:url(#Square);paint-order:fill markers stroke;stop-color:#1c1c1c"
       d="m 35,135 h 30 35"
       id="path17535"
       sodipodi:nodetypes="ccc" />
    <path
       style="fill:#000000;stroke:#000000;stroke-width:1;stroke-linecap:butt;stroke-linejoin:round;stroke-miterlimit:4;stroke-dasharray:none;stroke-dashoffset:0;stroke-opacity:1;marker-start:url(#DistanceStart);marker-mid:url(#DistanceStart);marker-end:url(#DistanceEnd);paint-order:fill markers stroke;stop-color:#1c1c1c"
       d="m 35,100 h 30 35"
       sodipodi:nodetypes="ccc"
       id="path17537" />
    <path
       style="fill:#000000;stroke:#000000;stroke-width:1;stroke-linecap:square;stroke-linejoin:round;stroke-miterlimit:4;stroke-dasharray:none;stroke-dashoffset:0;stroke-opacity:1;marker-start:url(#Dot);marker-mid:url(#Dot);marker-end:url(#Dot);paint-order:fill markers stroke;stop-color:#1c1c1c"
       d="m 35,145 h 30 35"
       id="path17539"
       sodipodi:nodetypes="ccc" />
    <path
       style="fill:#ffffff;stroke:#000000;stroke-width:1;stroke-linecap:square;stroke-linejoin:round;stroke-miterlimit:4;stroke-dasharray:none;stroke-dashoffset:0;stroke-opacity:1;marker-start:url(#marker9466);marker-mid:url(#marker9466);marker-end:url(#marker9466);paint-order:normal;stop-color:#1c1c1c"
       d="m 170.16905,99.545942 h 32.49999 32.5"
       id="path16387"
       sodipodi:nodetypes="ccc" />
    <path
       style="fill:#ffffff;stroke:#000000;stroke-width:1;stroke-linecap:square;stroke-linejoin:round;stroke-miterlimit:4;stroke-dasharray:none;stroke-dashoffset:0;stroke-opacity:1;marker-start:url(#marker9466);marker-mid:url(#marker9466);marker-end:url(#marker9466);paint-order:normal;stop-color:#1c1c1c"
       d="m 35,165 h 30 35"
       id="path17541"
       sodipodi:nodetypes="ccc" />
    <path
       style="fill:#ffffff;stroke:#000000;stroke-width:1;stroke-linecap:square;stroke-linejoin:round;stroke-miterlimit:4;stroke-dasharray:none;stroke-dashoffset:0;stroke-opacity:1;marker-start:url(#marker9949);marker-mid:url(#marker9949);marker-end:url(#marker9949);paint-order:normal;stop-color:#1c1c1c"
       d="m 170.16905,109.54594 h 32.49999 32.5"
       id="path16389"
       sodipodi:nodetypes="ccc" />
    <path
       style="fill:#ffffff;stroke:#000000;stroke-width:1;stroke-linecap:square;stroke-linejoin:round;stroke-miterlimit:4;stroke-dasharray:none;stroke-dashoffset:0;stroke-opacity:1;marker-start:url(#marker9949);marker-mid:url(#marker9949);marker-end:url(#marker9949);paint-order:normal;stop-color:#1c1c1c"
       d="m 35,175 h 30 35"
       id="path17543"
       sodipodi:nodetypes="ccc" />
    <path
       style="fill:#ffffff;stroke:#000000;stroke-width:1;stroke-linecap:square;stroke-linejoin:round;stroke-miterlimit:4;stroke-dasharray:none;stroke-dashoffset:0;stroke-opacity:1;marker-start:url(#EmptyDiamond);marker-mid:url(#EmptyDiamond);marker-end:url(#EmptyDiamond);paint-order:normal;stop-color:#1c1c1c"
       d="m 170.16905,119.54594 h 32.49999 32.5"
       id="path16391"
       sodipodi:nodetypes="ccc" />
    <path
       style="fill:#ffffff;stroke:#000000;stroke-width:1;stroke-linecap:square;stroke-linejoin:round;stroke-miterlimit:4;stroke-dasharray:none;stroke-dashoffset:0;stroke-opacity:1;marker-start:url(#EmptyDiamond);marker-mid:url(#EmptyDiamond);marker-end:url(#EmptyDiamond);paint-order:normal;stop-color:#1c1c1c"
       d="m 35,185 h 30 35"
       id="path17545"
       sodipodi:nodetypes="ccc" />
    <path
       style="fill:#000000;stroke:#000000;stroke-width:0.999997;stroke-linecap:square;stroke-linejoin:round;stroke-miterlimit:4;stroke-dasharray:none;stroke-dashoffset:0;stroke-opacity:1;marker-start:url(#Diamond);marker-mid:url(#Diamond);marker-end:url(#Diamond);paint-order:fill markers stroke;stop-color:#1c1c1c"
       d="m 35,155 h 30 35"
       id="path17547"
       sodipodi:nodetypes="ccc" />
    <path
       style="fill:#000000;stroke:#000000;stroke-width:1;stroke-linecap:round;stroke-linejoin:round;stroke-miterlimit:4;stroke-dasharray:none;stroke-dashoffset:0;stroke-opacity:1;marker-start:url(#Arow3);marker-mid:url(#Arow3);marker-end:url(#Arow3);paint-order:fill markers stroke;stop-color:#1c1c1c"
       d="m 35,20 h 30 35"
       id="path17549"
       sodipodi:nodetypes="ccc" />
    <path
       style="fill:#000000;stroke:#000000;stroke-width:1;stroke-linecap:butt;stroke-linejoin:round;stroke-miterlimit:4;stroke-dasharray:none;stroke-dashoffset:0;stroke-opacity:1;marker-start:url(#Arrow4);marker-mid:url(#Arrow4);marker-end:url(#Arrow4);paint-order:fill markers stroke;stop-color:#1c1c1c"
       d="m 35,30 h 30 35"
       sodipodi:nodetypes="ccc"
       id="path17551" />
    <path
       style="fill:#000000;stroke:#000000;stroke-width:1;stroke-linecap:butt;stroke-linejoin:round;stroke-miterlimit:4;stroke-dasharray:none;stroke-dashoffset:0;stroke-opacity:1;marker-start:url(#Arrow4);marker-mid:url(#Arrow4);marker-end:url(#Arrow4);paint-order:fill markers stroke;stop-color:#1c1c1c"
       d="m 35,40 h 30 35"
       sodipodi:nodetypes="ccc"
       id="path17553" />
    <path
       style="fill:#000000;stroke:#000000;stroke-width:1;stroke-linecap:round;stroke-linejoin:round;stroke-miterlimit:4;stroke-dasharray:none;stroke-dashoffset:0;stroke-opacity:1;marker-start:url(#Arrow4);marker-mid:url(#Arrow4);marker-end:url(#Arrow4);paint-order:fill markers stroke;stop-color:#1c1c1c"
       d="m 170.16905,40 h 32.49999 32.5"
       sodipodi:nodetypes="ccc"
       id="path1369" />
    <path
       style="fill:#000000;stroke:#000000;stroke-width:1;stroke-linecap:square;stroke-linejoin:round;stroke-miterlimit:4;stroke-dasharray:none;stroke-dashoffset:0;stroke-opacity:1;marker-start:url(#Stop);marker-mid:url(#Stop);marker-end:url(#Stop);paint-order:fill markers stroke;stop-color:#1c1c1c"
       d="m 35,195 h 30 35"
       id="path17555"
       sodipodi:nodetypes="ccc" />
    <path
       style="fill:#000000;stroke:#000000;stroke-width:1;stroke-linecap:square;stroke-linejoin:round;stroke-miterlimit:4;stroke-dasharray:none;stroke-dashoffset:0;stroke-opacity:1;marker-start:url(#TriangleStart);marker-mid:url(#TriangleStart);marker-end:url(#TriangleStart);paint-order:fill markers stroke;stop-color:#1c1c1c"
       d="m 35,50 h 30 35"
       id="path17557"
       sodipodi:nodetypes="ccc" />
    <path
       style="fill:#000000;stroke:#000000;stroke-width:0.999997;stroke-linecap:square;stroke-linejoin:round;stroke-miterlimit:4;stroke-dasharray:none;stroke-dashoffset:0;stroke-opacity:1;marker-start:url(#SemiCircleIn);marker-mid:url(#SemiCircleIn);marker-end:url(#SemiCircleIn);paint-order:fill markers stroke;stop-color:#1c1c1c"
       d="m 35,205 h 30 35"
       id="path17559"
       sodipodi:nodetypes="ccc" />
    <path
       style="fill:#ffffff;stroke:#000000;stroke-width:0.999997;stroke-linecap:square;stroke-linejoin:round;stroke-miterlimit:4;stroke-dasharray:none;stroke-dashoffset:0;stroke-opacity:1;marker-start:url(#EmptyTriangleIn);marker-mid:url(#EmptyTriangleIn);marker-end:url(#EmptyTriangleIn);paint-order:normal;stop-color:#1c1c1c"
       d="m 35,80 h 30 35"
       id="path17561"
       sodipodi:nodetypes="ccc" />
    <path
       style="fill:#000000;stroke:#000000;stroke-width:0.999997;stroke-linecap:butt;stroke-linejoin:round;stroke-miterlimit:4;stroke-dasharray:none;stroke-dashoffset:0;stroke-opacity:1;marker-start:url(#CurvyCross);marker-mid:url(#CurveIn);marker-end:url(#CurveIn);paint-order:fill markers stroke;stop-color:#1c1c1c"
       d="m 35,230 h 30 35"
       id="path17563"
       sodipodi:nodetypes="ccc" />
    <path
       style="fill:#000000;stroke:#000000;stroke-width:1;stroke-linecap:square;stroke-linejoin:round;stroke-miterlimit:4;stroke-dasharray:none;stroke-dashoffset:0;stroke-opacity:1;marker-start:url(#Tail);marker-mid:url(#Tail);marker-end:url(#Tail);paint-order:fill markers stroke;stop-color:#1c1c1c"
       d="m 35,90 h 30 35"
       id="path17565"
       sodipodi:nodetypes="ccc" />
    <path
       style="fill:#000000;stroke:#000000;stroke-width:0.999997;stroke-linecap:square;stroke-linejoin:round;stroke-miterlimit:4;stroke-dasharray:none;stroke-dashoffset:0;stroke-opacity:1;marker-start:url(#CurvyCross);marker-mid:url(#CurvyCross);marker-end:url(#CurvyCross);paint-order:fill markers stroke;stop-color:#1c1c1c"
       d="m 35,240 h 30 35"
       id="path17567"
       sodipodi:nodetypes="ccc" />
    <path
       style="fill:#000000;stroke:#000000;stroke-width:1;stroke-linecap:square;stroke-linejoin:round;stroke-miterlimit:4;stroke-dasharray:none;stroke-dashoffset:0;stroke-opacity:1;marker-start:url(#Scissors);marker-mid:url(#Scissors);marker-end:url(#Scissors);paint-order:fill markers stroke;stop-color:#1c1c1c"
       d="m 35,250 h 30 35"
       id="path17569"
       sodipodi:nodetypes="ccc" />
    <path
       style="fill:#000000;stroke:#000000;stroke-width:0.999997;stroke-linecap:square;stroke-linejoin:round;stroke-miterlimit:4;stroke-dasharray:none;stroke-dashoffset:0;stroke-opacity:1;marker-start:url(#Club);marker-mid:url(#Club);marker-end:url(#Club);paint-order:fill markers stroke;stop-color:#1c1c1c"
       d="m 35,260 h 30 35"
       id="path17571"
       sodipodi:nodetypes="ccc" />
    <path
       style="fill:#000000;stroke:#000000;stroke-width:0.999997;stroke-linecap:square;stroke-linejoin:round;stroke-miterlimit:4;stroke-dasharray:none;stroke-dashoffset:0;stroke-opacity:1;marker-start:url(#3dots);marker-mid:url(#3dots);marker-end:url(#3dots);paint-order:fill markers stroke;stop-color:#1c1c1c"
       d="m 35,270 h 30 35"
       id="path17573"
       sodipodi:nodetypes="ccc" />
    <path
       style="fill:#000000;stroke:#000000;stroke-width:1;stroke-linecap:round;stroke-linejoin:round;stroke-miterlimit:4;stroke-dasharray:none;stroke-dashoffset:0;stroke-opacity:1;marker-start:url(#Arow3);marker-mid:url(#Arow3);marker-end:url(#Arow3);paint-order:fill markers stroke;stop-color:#1c1c1c"
       d="m 170.16905,20 h 32.5 32.5"
       id="path23606"
       sodipodi:nodetypes="ccc" />
    <path
       style="fill:#000000;stroke:#000000;stroke-width:1;stroke-linecap:round;stroke-linejoin:round;stroke-miterlimit:4;stroke-dasharray:none;stroke-dashoffset:0;stroke-opacity:1;marker-start:url(#Arow3);marker-mid:url(#Arow3);marker-end:url(#Arow3);paint-order:fill markers stroke;stop-color:#1c1c1c"
       d="m 170.16905,20 h 32.5 32.5"
       id="path36996"
       sodipodi:nodetypes="ccc" />
    <path
       style="fill:#000000;stroke:#000000;stroke-width:1;stroke-linecap:round;stroke-linejoin:round;stroke-miterlimit:4;stroke-dasharray:none;stroke-dashoffset:0;stroke-opacity:1;marker-start:url(#Arow3);marker-mid:url(#Arow3);marker-end:url(#Arow3);paint-order:fill markers stroke;stop-color:#1c1c1c"
       d="m 170.16905,30 h 32.5 32.5"
       id="path1182"
       sodipodi:nodetypes="ccc" />
    <path
       style="fill:#000000;stroke:#000000;stroke-width:1;stroke-linecap:round;stroke-linejoin:round;stroke-miterlimit:4;stroke-dasharray:none;stroke-dashoffset:0;stroke-opacity:1;marker-start:url(#Sketch);marker-mid:url(#Sketch);marker-end:url(#Sketch);paint-order:fill markers stroke;stop-color:#1c1c1c"
       d="m 171.66905,129.54594 h 32.5 32.5"
       sodipodi:nodetypes="ccc"
       id="path8082" />
    <path
       style="fill:#000000;stroke:#000000;stroke-width:1;stroke-linecap:round;stroke-linejoin:round;stroke-miterlimit:4;stroke-dasharray:none;stroke-dashoffset:0;stroke-opacity:1;marker-start:url(#Sketch);marker-mid:url(#Sketch);marker-end:url(#Sketch);paint-order:fill markers stroke;stop-color:#1c1c1c"
       d="m 36.25,280 h 32.5 32.5"
       sodipodi:nodetypes="ccc"
       id="path4288" />
    <path
       style="fill:#000000;stroke:#000000;stroke-width:0.6;stroke-linecap:round;stroke-linejoin:round;stroke-miterlimit:4;stroke-dasharray:none;stroke-dashoffset:0;stroke-opacity:1;marker-start:url(#pin);marker-mid:url(#pin);marker-end:url(#pin);paint-order:fill markers stroke;stop-color:#1c1c1c"
       d="m 169.16905,144.54594 h 32.5 32.5"
       sodipodi:nodetypes="ccc"
       id="path4520" />
    <path
       style="fill:none;stroke:#000000;stroke-width:4.50434;stroke-linecap:butt;stroke-linejoin:round;stroke-miterlimit:4;stroke-dasharray:none;stroke-dashoffset:0;stroke-opacity:1;marker-start:url(#CapTriangle);marker-end:url(#CapTriangle);paint-order:fill markers stroke;stop-color:#1c1c1c"
       d="m 169.16905,155 h 32.5 H 235"
       sodipodi:nodetypes="ccc"
       id="path184149" />
    <path
       style="fill:none;stroke:#000000;stroke-width:4.50434;stroke-linecap:butt;stroke-linejoin:round;stroke-miterlimit:4;stroke-dasharray:none;stroke-dashoffset:0;stroke-opacity:1;marker-start:url(#CapRibborn1);marker-end:url(#CapRibborn1);paint-order:fill markers stroke;stop-color:#1c1c1c"
       d="m 169.16905,168.6118 h 32.5 H 235"
       sodipodi:nodetypes="ccc"
       id="path184151" />
    <path
       style="fill:none;stroke:#000000;stroke-width:4.50434;stroke-linecap:butt;stroke-linejoin:round;stroke-miterlimit:4;stroke-dasharray:none;stroke-dashoffset:0;stroke-opacity:1;marker-start:url(#CapRibbon2);marker-end:url(#CapRibbon2);paint-order:fill markers stroke;stop-color:#1c1c1c"
       d="m 169.16905,180 h 32.5 H 235"
       sodipodi:nodetypes="ccc"
       id="path184153" />
    <path
       style="fill:none;stroke:#000000;stroke-width:4.50434;stroke-linecap:butt;stroke-linejoin:round;stroke-miterlimit:4;stroke-dasharray:none;stroke-dashoffset:0;stroke-opacity:1;marker-start:url(#CapButt);marker-end:url(#CapButt);paint-order:fill markers stroke;stop-color:#1c1c1c"
       d="m 169.16905,195 h 32.5 H 235"
       sodipodi:nodetypes="ccc"
       id="path184155" />
    <path
       style="fill:none;stroke:#000000;stroke-width:4.50434;stroke-linecap:butt;stroke-linejoin:round;stroke-miterlimit:4;stroke-dasharray:none;stroke-dashoffset:0;stroke-opacity:1;marker-start:url(#Cap4);marker-end:url(#Cap4);paint-order:fill markers stroke;stop-color:#1c1c1c"
       d="m 169.16905,210 h 32.5 H 235"
       sodipodi:nodetypes="ccc"
       id="path184157" />
    <path
       style="fill:#000000;stroke:#000000;stroke-width:0.6;stroke-linecap:round;stroke-linejoin:round;stroke-miterlimit:4;stroke-dasharray:none;stroke-dashoffset:0;stroke-opacity:1;marker-start:url(#pin);marker-mid:url(#pin);marker-end:url(#pin);paint-order:fill markers stroke;stop-color:#1c1c1c"
       d="m 33.75,295 h 32.5 32.5"
       sodipodi:nodetypes="ccc"
       id="path1184" />
    <path
       style="fill:#000000;stroke:#000000;stroke-width:1;stroke-linecap:square;stroke-linejoin:round;stroke-miterlimit:4;stroke-dasharray:none;stroke-dashoffset:0;stroke-opacity:1;marker-start:url(#Arrow 5);marker-mid:url(#Arrow 5);marker-end:url(#Arrow 5);paint-order:fill markers stroke;stop-color:#1c1c1c"
       d="m 170.16905,50 h 32.5 32.5"
       id="path4091"
       sodipodi:nodetypes="ccc" />
    <path
       style="fill:none;stroke:#000000;stroke-width:1;stroke-linecap:square;stroke-linejoin:round;stroke-miterlimit:4;stroke-dasharray:none;stroke-dashoffset:0;stroke-opacity:1;marker-start:url(#Arrow2);marker-mid:url(#Arrow2);marker-end:url(#Arrow2);paint-order:fill markers stroke;stop-color:#1c1c1c"
       d="m 170.16905,60 h 32.5 32.5"
       id="path9343"
       sodipodi:nodetypes="ccc" />
    <path
       style="fill:#000000;stroke:#000000;stroke-width:1;stroke-linecap:square;stroke-linejoin:round;stroke-miterlimit:4;stroke-dasharray:none;stroke-dashoffset:0;stroke-opacity:1;marker-start:url(#Arrow2);marker-mid:url(#Arrow2);marker-end:url(#Arrow2);paint-order:fill markers stroke;stop-color:#1c1c1c"
       d="m 35,60 h 30 35"
       id="path17575"
       sodipodi:nodetypes="ccc" />
    <path
       style="fill:#000000;stroke:#000000;stroke-width:1;stroke-linecap:square;stroke-linejoin:round;stroke-miterlimit:4;stroke-dasharray:none;stroke-dashoffset:0;stroke-opacity:1;marker-start:url(#Rounded Arrow);marker-mid:url(#Rounded Arrow);marker-end:url(#Rounded Arrow);paint-order:fill markers stroke;stop-color:#1c1c1c"
       d="m 170.16905,70 h 32.5 32.5"
       id="path15764"
       sodipodi:nodetypes="ccc" />
    <path
       style="fill:#000000;stroke:#000000;stroke-width:1;stroke-linecap:square;stroke-linejoin:round;stroke-miterlimit:4;stroke-dasharray:none;stroke-dashoffset:0;stroke-opacity:1;marker-start:url(#X);marker-mid:url(#X);marker-end:url(#X);paint-order:fill markers stroke;stop-color:#1c1c1c"
       d="m 170.16904,80 h 32.5 32.5"
       id="path17507"
       sodipodi:nodetypes="ccc" />
    <path
       style="fill:#000000;stroke:#000000;stroke-width:1;stroke-linecap:square;stroke-linejoin:round;stroke-miterlimit:4;stroke-dasharray:none;stroke-dashoffset:0;stroke-opacity:1;marker-start:url(#X);marker-mid:url(#X);marker-end:url(#X);paint-order:fill markers stroke;stop-color:#1c1c1c"
       d="m 170.16904,80 h 32.5 32.5"
       id="path168933"
       sodipodi:nodetypes="ccc" />
    <path
       style="fill:#000000;stroke:#000000;stroke-width:1;stroke-linecap:square;stroke-linejoin:round;stroke-miterlimit:4;stroke-dasharray:none;stroke-dashoffset:0;stroke-opacity:1;marker-start:url(#Line);marker-mid:url(#Line);marker-end:url(#Line);paint-order:fill markers stroke;stop-color:#1c1c1c"
       d="m 170.16904,90.845942 h 32.5 32.5"
       id="path185009"
       sodipodi:nodetypes="ccc" />
    <path
       style="fill:#000000;stroke:#000000;stroke-width:1;stroke-linecap:square;stroke-linejoin:round;stroke-miterlimit:4;stroke-dasharray:none;stroke-dashoffset:0;stroke-opacity:1;marker-start:url(#X);marker-mid:url(#X);marker-end:url(#X);paint-order:fill markers stroke;stop-color:#1c1c1c"
       d="m 33.75,215 h 32.5 32.5"
       id="path17577"
       sodipodi:nodetypes="ccc" />
    <path
       style="fill:#000000;stroke:#000000;stroke-width:1;stroke-linecap:square;stroke-linejoin:round;stroke-miterlimit:4;stroke-dasharray:none;stroke-dashoffset:0;stroke-opacity:1;marker-start:url(#Rounded Arrow);marker-mid:url(#Rounded Arrow);marker-end:url(#Rounded Arrow);paint-order:fill markers stroke;stop-color:#1c1c1c"
       d="m 35,70 h 30 35"
       id="path17579"
       sodipodi:nodetypes="ccc" />
    <text
       xml:space="preserve"
       style="font-size:7.56225px;line-height:1.25;font-family:sans-serif;letter-spacing:0px;word-spacing:0px;fill:#4d4d4d;stroke-width:1"
       x="62.414101"
       y="10.322359"
       id="text17583"><tspan
         sodipodi:role="line"
         id="tspan17581"
         x="62.414101"
         y="10.322359"
         style="fill:#4d4d4d;stroke-width:1">ALL</tspan></text>
    <text
       xml:space="preserve"
       style="font-size:7.56225px;line-height:1.25;font-family:sans-serif;letter-spacing:0px;word-spacing:0px;fill:#4d4d4d;stroke-width:1"
       x="192.53827"
       y="9.6152534"
       id="text3261"><tspan
         sodipodi:role="line"
         id="tspan3259"
         x="192.53827"
         y="9.6152534"
         style="fill:#4d4d4d;stroke-width:1">New</tspan></text>
    <path
       d="M -2,-4 9,0 -2,4 c 2,-2.33 2,-5.66 0,-8 z"
       style="display:none;fill:#000000;fill-rule:evenodd;stroke:none"
       id="path2780"
       sodipodi:nodetypes="cccc" />
    <path
       style="display:none;fill:#000000;fill-rule:evenodd;stroke:none"
       d="m 6,0 c -3,1 -7,3 -9,5 0,0 0,-4 2,-5 -2,-1 -2,-5 -2,-5 2,2 6,4 9,5 z"
       id="path2566"
       sodipodi:nodetypes="ccccc" />
    <path
       style="display:none;fill:none;stroke:#000000;stroke-width:0.5;stroke-linecap:butt;stroke-linejoin:miter;stroke-miterlimit:4;stroke-dasharray:none;stroke-opacity:1"
       d="m -4.5421538,-3.2452189 3.83900644,2.60235235 0.56348102,0.59255887 L -2.4921466,1.1808717 -4.4106004,2.139946 -4.5795251,2.8245356 -4.703996,3.0734773 -4.3128019,2.6822832 -3.9749524,2.3088707 0.66603196,-0.12720162 0.02589622,-0.32279868 -1.7613224,-0.60366199 -3.580874,-2.0472634 -4.3186004,-2.392437 l -1.2937699,-0.2549423 2.1825172,0.042166 0.6996091,1.0554873 1.4406512,0.1145833 1.20879971,0.91674665 1.53333299,0.47138389 -1.85995289,1.23785256 -2.03832621,0.9224332 -1.5469949,0.9779853"
       id="path17897"
       sodipodi:nodetypes="ccccccccccccccccccccccc" />
    <path
       style="display:none;fill:none;stroke:#000000;stroke-width:0.5;stroke-linecap:butt;stroke-linejoin:miter;stroke-miterlimit:4;stroke-dasharray:none;stroke-opacity:1"
       d="m -4.5421538,-3.2452189 3.83900644,2.60235235 0.56348102,0.59255887 L -2.4921466,1.1808717 -4.4106004,2.139946 -4.5795251,2.8245356 -4.703996,3.0734773 -4.3128019,2.6822832 -3.9749524,2.3088707 0.66603196,-0.12720162 0.02589622,-0.32279868 -1.7613224,-0.60366199 -3.580874,-2.0472634 -4.3186004,-2.392437 l -1.2937699,-0.2549423 2.1825172,0.042166 0.6996091,1.0554873 1.4406512,0.1145833 1.20879971,0.91674665 1.53333299,0.47138389 -1.85995289,1.23785256 -2.03832621,0.9224332 -1.5469949,0.9779853"
       id="path4555"
       sodipodi:nodetypes="ccccccccccccccccccccccc" />
    <path
       style="display:none;fill:none;stroke:#000000;stroke-width:0.5;stroke-linecap:butt;stroke-linejoin:miter;stroke-miterlimit:4;stroke-dasharray:none;stroke-opacity:1"
       d="m -4.5421538,-3.2452189 3.83900644,2.60235235 0.56348102,0.59255887 L -2.4921466,1.1808717 -4.4106004,2.139946 -4.5795251,2.8245356 -4.703996,3.0734773 -4.3128019,2.6822832 -3.9749524,2.3088707 0.66603196,-0.12720162 0.02589622,-0.32279868 -1.7613224,-0.60366199 -3.580874,-2.0472634 -4.3186004,-2.392437 l -1.2937699,-0.2549423 2.1825172,0.042166 0.6996091,1.0554873 1.4406512,0.1145833 1.20879971,0.91674665 1.53333299,0.47138389 -1.85995289,1.23785256 -2.03832621,0.9224332 -1.5469949,0.9779853"
       id="path4557"
       sodipodi:nodetypes="ccccccccccccccccccccccc" />
    <g
       id="path11785">
      <path
         style="color:#000000;fill:#e6e6e6;stroke-width:0.6;-inkscape-stroke:none;paint-order:markers fill stroke"
         d="M 5,0 H 4"
         id="path15444" />
      <path
         style="color:#000000;fill:#808080;-inkscape-stroke:none;paint-order:markers fill stroke"
         d="m 4,-0.30078125 v 0.6015625 h 1 v -0.6015625 z"
         id="path15446" />
    </g>
    <path
       style="fill:none;stroke:#000000;stroke-width:1px;stroke-linecap:butt;stroke-linejoin:miter;stroke-opacity:1"
       d="M -0.5625,-3.375 V 4.25"
       id="path171866" />
  </g>
</svg>
